analysis_tidyverse.knit
…
---

# `tidyr::separate()`

Splits a column into multiple columns

**Example:** Divide enddate into year, month and day.

```r
polls_us_election_2016 %>%
* separate(enddate, into = c("year", "month", "day"), sep = "-")
```

```
## # A tibble: 4,208 × 17
##    state      startdate  year  month day   pollster  grade samplesize population
##    <fct>      <date>     <chr> <chr> <chr> <fct>     <fct>      <int> <chr>     
##  1 U.S.       2016-11-03 2016  11    06    ABC News… A+          2220 lv        
##  2 U.S.       2016-11-01 2016  11    07    Google C… B          26574 lv        
##  3 U.S.       2016-11-02 2016  11    06    Ipsos     A-          2195 lv        
##  4 U.S.       2016-11-04 2016  11    07    YouGov    B           3677 lv        
##  5 U.S.       2016-11-03 2016  11    06    Gravis M… B-         16639 rv        
##  6 U.S.       2016-11-03 2016  11    06    Fox News… A           1295 lv        
##  7 U.S.       2016-11-02 2016  11    06    CBS News… A-          1426 lv        
##  8 U.S.       2016-11-03 2016  11    05    NBC News… A-          1282 lv        
##  9 New Mexico 2016-11-06 2016  11    06    Zia Poll  <NA>        8439 lv        
## 10 U.S.       2016-11-04 2016  11    07    IBD/TIPP  A-          1107 lv        
## # ℹ 4,198 more rows
## # ℹ 8 more variables: rawpoll_clinton <dbl>, rawpoll_trump <dbl>,
## #   rawpoll_johnson <dbl>, rawpoll_mcmullin <dbl>, adjpoll_clinton <dbl>,
## #   adjpoll_trump <dbl>, adjpoll_johnson <dbl>, adjpoll_mcmullin <dbl>
```
---

# `tidyr::unite()`

Combines multiple columns into a single column. 

**Example:** Using the previous example, unite the "year", "month", "day" back into "enddate"

```r
separated_data %>%
* unite("enddate", c("year", "month", "day"), sep = "-")
```

```
## # A tibble: 4,208 × 15
##    state startdate  enddate pollster grade samplesize population rawpoll_clinton
##    <fct> <date>     <chr>   <fct>    <fct>      <int> <chr>                <dbl>
##  1 U.S.  2016-11-03 2016-1… ABC New… A+          2220 lv                    47  
##  2 U.S.  2016-11-01 2016-1… Google … B          26574 lv                    38.0
##  3 U.S.  2016-11-02 2016-1… Ipsos    A-          2195 lv                    42  
##  4 U.S.  2016-11-04 2016-1… YouGov   B           3677 lv                    45  
##  5 U.S.  2016-11-03 2016-1… Gravis … B-         16639 rv                    47  
##  6 U.S.  2016-11-03 2016-1… Fox New… A           1295 lv                    48  
##  7 U.S.  2016-11-02 2016-1… CBS New… A-          1426 lv                    45  
##  8 U.S.  2016-11-03 2016-1… NBC New… A-          1282 lv                    44  
##  9 New … 2016-11-06 2016-1… Zia Poll <NA>        8439 lv                    46  
## 10 U.S.  2016-11-04 2016-1… IBD/TIPP A-          1107 lv                    41.2
## # ℹ 4,198 more rows
## # ℹ 7 more variables: rawpoll_trump <dbl>, rawpoll_johnson <dbl>,
## #   rawpoll_mcmullin <dbl>, adjpoll_clinton <dbl>, adjpoll_trump <dbl>,
## #   adjpoll_johnson <dbl>, adjpoll_mcmullin <dbl>
```
…
1. `group_by()`: All the above can be used in conjunction with `group_by()` to use function on groups rather than entire data

---

# `dplyr::select()` 

*Example:* Only keep the variables `state, startdate, enddate, pollster, rawpoll_clinton, rawpoll_trump`

```r
polls_us_election_2016 %>%
* select(state,startdate,enddate,pollster,rawpoll_clinton,rawpoll_trump)
```

```
## # A tibble: 4,208 × 6
##    state      startdate  enddate    pollster       rawpoll_clinton rawpoll_trump
##    <fct>      <date>     <date>     <fct>                    <dbl>         <dbl>
##  1 U.S.       2016-11-03 2016-11-06 ABC News/Wash…            47            43  
##  2 U.S.       2016-11-01 2016-11-07 Google Consum…            38.0          35.7
##  3 U.S.       2016-11-02 2016-11-06 Ipsos                     42            39  
##  4 U.S.       2016-11-04 2016-11-07 YouGov                    45            41  
##  5 U.S.       2016-11-03 2016-11-06 Gravis Market…            47            43  
##  6 U.S.       2016-11-03 2016-11-06 Fox News/Ande…            48            44  
##  7 U.S.       2016-11-02 2016-11-06 CBS News/New …            45            41  
##  8 U.S.       2016-11-03 2016-11-05 NBC News/Wall…            44            40  
##  9 New Mexico 2016-11-06 2016-11-06 Zia Poll                  46            44  
## 10 U.S.       2016-11-04 2016-11-07 IBD/TIPP                  41.2          42.7
## # ℹ 4,198 more rows
```

---

# `dplyr::filter()` 

*Example:* Which polls had a sample size of at least 2,000 people?

--

```r
*polls_us_election_2016
```

```
## # A tibble: 4,208 × 15
##    state      startdate  enddate    pollster         grade samplesize population
##    <fct>      <date>     <date>     <fct>            <fct>      <int> <chr>     
##  1 U.S.       2016-11-03 2016-11-06 ABC News/Washin… A+          2220 lv        
##  2 U.S.       2016-11-01 2016-11-07 Google Consumer… B          26574 lv        
##  3 U.S.       2016-11-02 2016-11-06 Ipsos            A-          2195 lv        
##  4 U.S.       2016-11-04 2016-11-07 YouGov           B           3677 lv        
##  5 U.S.       2016-11-03 2016-11-06 Gravis Marketing B-         16639 rv        
##  6 U.S.       2016-11-03 2016-11-06 Fox News/Anders… A           1295 lv        
##  7 U.S.       2016-11-02 2016-11-06 CBS News/New Yo… A-          1426 lv        
##  8 U.S.       2016-11-03 2016-11-05 NBC News/Wall S… A-          1282 lv        
##  9 New Mexico 2016-11-06 2016-11-06 Zia Poll         <NA>        8439 lv        
## 10 U.S.       2016-11-04 2016-11-07 IBD/TIPP         A-          1107 lv        
## # ℹ 4,198 more rows
## # ℹ 8 more variables: rawpoll_clinton <dbl>, rawpoll_trump <dbl>,
## #   rawpoll_johnson <dbl>, rawpoll_mcmullin <dbl>, adjpoll_clinton <dbl>,
## #   adjpoll_trump <dbl>, adjpoll_johnson <dbl>, adjpoll_mcmullin <dbl>
```

---

# `dplyr::filter()`

*Example:* Which polls had a sample size of at least 2,000 people?

```r
polls_us_election_2016 %>%
* filter(samplesize > 2000)
```

```
## # A tibble: 403 × 15
##    state      startdate  enddate    pollster         grade samplesize population
##    <fct>      <date>     <date>     <fct>            <fct>      <int> <chr>     
##  1 U.S.       2016-11-03 2016-11-06 ABC News/Washin… A+          2220 lv        
##  2 U.S.       2016-11-01 2016-11-07 Google Consumer… B          26574 lv        
##  3 U.S.       2016-11-02 2016-11-06 Ipsos            A-          2195 lv        
##  4 U.S.       2016-11-04 2016-11-07 YouGov           B           3677 lv        
##  5 U.S.       2016-11-03 2016-11-06 Gravis Marketing B-         16639 rv        
##  6 New Mexico 2016-11-06 2016-11-06 Zia Poll         <NA>        8439 lv        
##  7 U.S.       2016-11-05 2016-11-07 The Times-Picay… <NA>        2521 lv        
##  8 U.S.       2016-11-01 2016-11-07 USC Dornsife/LA… <NA>        2972 lv        
##  9 Georgia    2016-11-03 2016-11-06 Gravis Marketing B-          2002 rv        
## 10 Virginia   2016-11-01 2016-11-02 Remington        <NA>        3076 lv        
## # ℹ 393 more rows
## # ℹ 8 more variables: rawpoll_clinton <dbl>, rawpoll_trump <dbl>,
## #   rawpoll_johnson <dbl>, rawpoll_mcmullin <dbl>, adjpoll_clinton <dbl>,
## #   adjpoll_trump <dbl>, adjpoll_johnson <dbl>, adjpoll_mcmullin <dbl>
```
…
---

# `dplyr::arrange()` 

*Example:* Sort the dataframe in terms of the sample size. 

```r
polls_us_election_2016 %>% 
  arrange(samplesize) # this will do it from smaller to larger by default
```

```
## # A tibble: 4,208 × 15
##    state         startdate  enddate    pollster      grade samplesize population
##    <fct>         <date>     <date>     <fct>         <fct>      <int> <chr>     
##  1 Wyoming       2016-10-04 2016-10-09 Google Consu… B             35 lv        
##  2 Maine         2016-10-04 2016-10-09 Google Consu… B             37 lv        
##  3 New Hampshire 2016-09-21 2016-09-26 Google Consu… B             39 lv        
##  4 Hawaii        2016-09-14 2016-09-20 Google Consu… B             42 lv        
##  5 Wyoming       2016-09-27 2016-10-03 Google Consu… B             43 lv        
##  6 Rhode Island  2016-10-10 2016-10-14 Google Consu… B             45 lv        
##  7 Vermont       2016-10-04 2016-10-09 Google Consu… B             47 lv        
##  8 North Dakota  2016-09-27 2016-10-03 Google Consu… B             49 lv        
##  9 Rhode Island  2016-09-14 2016-09-20 Google Consu… B             50 lv        
## 10 Rhode Island  2016-10-04 2016-10-09 Google Consu… B             51 lv        
## # ℹ 4,198 more rows
## # ℹ 8 more variables: rawpoll_clinton <dbl>, rawpoll_trump <dbl>,
## #   rawpoll_johnson <dbl>, rawpoll_mcmullin <dbl>, adjpoll_clinton <dbl>,
## #   adjpoll_trump <dbl>, adjpoll_johnson <dbl>, adjpoll_mcmullin <dbl>
```
…
# `dplyr::mutate()` 

*Example:* What was...

1. the combined vote share of Trump and Clinton for each poll?
2. the difference between Trump's raw poll vote share and 538's adjusted vote share?

```r
polls_us_election_2016 %>%
* mutate(trump_clinton_tot = rawpoll_trump + rawpoll_clinton,
*        trump_raw_adj_diff = rawpoll_trump - adjpoll_trump)
```

```
## # A tibble: 4,208 × 17
##    state      startdate  enddate    pollster         grade samplesize population
##    <fct>      <date>     <date>     <fct>            <fct>      <int> <chr>     
##  1 U.S.       2016-11-03 2016-11-06 ABC News/Washin… A+          2220 lv        
##  2 U.S.       2016-11-01 2016-11-07 Google Consumer… B          26574 lv        
##  3 U.S.       2016-11-02 2016-11-06 Ipsos            A-          2195 lv        
##  4 U.S.       2016-11-04 2016-11-07 YouGov           B           3677 lv        
##  5 U.S.       2016-11-03 2016-11-06 Gravis Marketing B-         16639 rv        
##  6 U.S.       2016-11-03 2016-11-06 Fox News/Anders… A           1295 lv        
##  7 U.S.       2016-11-02 2016-11-06 CBS News/New Yo… A-          1426 lv        
##  8 U.S.       2016-11-03 2016-11-05 NBC News/Wall S… A-          1282 lv        
##  9 New Mexico 2016-11-06 2016-11-06 Zia Poll         <NA>        8439 lv        
## 10 U.S.       2016-11-04 2016-11-07 IBD/TIPP         A-          1107 lv        
## # ℹ 4,198 more rows
## # ℹ 10 more variables: rawpoll_clinton <dbl>, rawpoll_trump <dbl>,
## #   rawpoll_johnson <dbl>, rawpoll_mcmullin <dbl>, adjpoll_clinton <dbl>,
## #   adjpoll_trump <dbl>, adjpoll_johnson <dbl>, adjpoll_mcmullin <dbl>,
## #   trump_clinton_tot <dbl>, trump_raw_adj_diff <dbl>
```
…
---

# `dplyr::group_by()` 

*Example:* What is the average vote share for Clinton by poll grade?

```r
polls_us_election_2016 %>%
* group_by(grade)
```

```
## # A tibble: 4,208 × 15
## # Groups:   grade [11]
##    state      startdate  enddate    pollster         grade samplesize population
##    <fct>      <date>     <date>     <fct>            <fct>      <int> <chr>     
##  1 U.S.       2016-11-03 2016-11-06 ABC News/Washin… A+          2220 lv        
##  2 U.S.       2016-11-01 2016-11-07 Google Consumer… B          26574 lv        
##  3 U.S.       2016-11-02 2016-11-06 Ipsos            A-          2195 lv        
##  4 U.S.       2016-11-04 2016-11-07 YouGov           B           3677 lv        
##  5 U.S.       2016-11-03 2016-11-06 Gravis Marketing B-         16639 rv        
##  6 U.S.       2016-11-03 2016-11-06 Fox News/Anders… A           1295 lv        
##  7 U.S.       2016-11-02 2016-11-06 CBS News/New Yo… A-          1426 lv        
##  8 U.S.       2016-11-03 2016-11-05 NBC News/Wall S… A-          1282 lv        
##  9 New Mexico 2016-11-06 2016-11-06 Zia Poll         <NA>        8439 lv        
## 10 U.S.       2016-11-04 2016-11-07 IBD/TIPP         A-          1107 lv        
## # ℹ 4,198 more rows
## # ℹ 8 more variables: rawpoll_clinton <dbl>, rawpoll_trump <dbl>,
## #   rawpoll_johnson <dbl>, rawpoll_mcmullin <dbl>, adjpoll_clinton <dbl>,
## #   adjpoll_trump <dbl>, adjpoll_johnson <dbl>, adjpoll_mcmullin <dbl>
```

---

# `dplyr::group_by()` 

*Example:* What is the average vote share for Clinton by poll grade?

```r
polls_us_election_2016 %>%
* group_by(grade)
```

```
## # A tibble: 4,208 × 15
## # Groups:   grade [11]
##    state      startdate  enddate    pollster         grade samplesize population
##    <fct>      <date>     <date>     <fct>            <fct>      <int> <chr>     
##  1 U.S.       2016-11-03 2016-11-06 ABC News/Washin… A+          2220 lv        
##  2 U.S.       2016-11-01 2016-11-07 Google Consumer… B          26574 lv        
##  3 U.S.       2016-11-02 2016-11-06 Ipsos            A-          2195 lv        
##  4 U.S.       2016-11-04 2016-11-07 YouGov           B           3677 lv        
##  5 U.S.       2016-11-03 2016-11-06 Gravis Marketing B-         16639 rv        
##  6 U.S.       2016-11-03 2016-11-06 Fox News/Anders… A           1295 lv        
##  7 U.S.       2016-11-02 2016-11-06 CBS News/New Yo… A-          1426 lv        
##  8 U.S.       2016-11-03 2016-11-05 NBC News/Wall S… A-          1282 lv        
##  9 New Mexico 2016-11-06 2016-11-06 Zia Poll         <NA>        8439 lv        
## 10 U.S.       2016-11-04 2016-11-07 IBD/TIPP         A-          1107 lv        
## # ℹ 4,198 more rows
## # ℹ 8 more variables: rawpoll_clinton <dbl>, rawpoll_trump <dbl>,
## #   rawpoll_johnson <dbl>, rawpoll_mcmullin <dbl>, adjpoll_clinton <dbl>,
## #   adjpoll_trump <dbl>, adjpoll_johnson <dbl>, adjpoll_mcmullin <dbl>
```
…
```r
polls_us_election_2016 %>% 
* pivot_longer(
    cols = c(rawpoll_clinton:adjpoll_mcmullin),
    names_to = c(".value", "candidate"),
    names_pattern = "(rawpoll|adjpoll)_(.*)"
  ) %>% # reshape
  select(-enddate) %>%  # everything except enddate
  filter(samplesize>=2000) %>%  # filter sample size greater than 2,000
  group_by(state, candidate) %>% #group by state and candidate
  summarise(rawpoll = mean(rawpoll, na.rm = TRUE)) # summarise 
```

```
## # A tibble: 104 × 3
## # Groups:   state [26]
##    state      candidate rawpoll
##    <fct>      <chr>       <dbl>
##  1 Alabama    clinton     32.5 
##  2 Alabama    johnson    NaN   
##  3 Alabama    mcmullin   NaN   
##  4 Alabama    trump       62.5 
##  5 Arizona    clinton     44   
##  6 Arizona    johnson      7.5 
##  7 Arizona    mcmullin   NaN   
##  8 Arizona    trump       42.8 
##  9 California clinton     54.2 
## 10 California johnson      7.32
## # ℹ 94 more rows
```
…
With these verbs and the pipe chaining commands helps tidy your workflow, you can do multiple of this operations at the same time.
(for tidyverse verbs and others)

```r
polls_us_election_2016 %>% 
* pivot_longer(
    cols = c(rawpoll_clinton:adjpoll_mcmullin),
    names_to = c(".value", "candidate"),
    names_pattern = "(rawpoll|adjpoll)_(.*)"
  )  # reshape
```

```
## # A tibble: 16,832 × 10
##    state startdate  enddate    pollster    grade samplesize population candidate
##    <fct> <date>     <date>     <fct>       <fct>      <int> <chr>      <chr>    
##  1 U.S.  2016-11-03 2016-11-06 ABC News/W… A+          2220 lv         clinton  
##  2 U.S.  2016-11-03 2016-11-06 ABC News/W… A+          2220 lv         trump    
##  3 U.S.  2016-11-03 2016-11-06 ABC News/W… A+          2220 lv         johnson  
##  4 U.S.  2016-11-03 2016-11-06 ABC News/W… A+          2220 lv         mcmullin 
##  5 U.S.  2016-11-01 2016-11-07 Google Con… B          26574 lv         clinton  
##  6 U.S.  2016-11-01 2016-11-07 Google Con… B          26574 lv         trump    
##  7 U.S.  2016-11-01 2016-11-07 Google Con… B          26574 lv         johnson  
##  8 U.S.  2016-11-01 2016-11-07 Google Con… B          26574 lv         mcmullin 
##  9 U.S.  2016-11-02 2016-11-06 Ipsos       A-          2195 lv         clinton  
## 10 U.S.  2016-11-02 2016-11-06 Ipsos       A-          2195 lv         trump    
## # ℹ 16,822 more rows
## # ℹ 2 more variables: rawpoll <dbl>, adjpoll <dbl>
```
…
With these verbs and the pipe chaining commands helps tidy your workflow, you can do multiple of this operations at the same time.
(for tidyverse verbs and others)

```r
polls_us_election_2016 %>% 
  pivot_longer( 
    cols = c(rawpoll_clinton:adjpoll_mcmullin),
    names_to = c(".value", "candidate"),
    names_pattern = "(rawpoll|adjpoll)_(.*)"
  ) %>% # reshape
* select(-enddate) # everything except enddate
```

```
## # A tibble: 16,832 × 9
##    state startdate  pollster       grade samplesize population candidate rawpoll
##    <fct> <date>     <fct>          <fct>      <int> <chr>      <chr>       <dbl>
##  1 U.S.  2016-11-03 ABC News/Wash… A+          2220 lv         clinton     47   
##  2 U.S.  2016-11-03 ABC News/Wash… A+          2220 lv         trump       43   
##  3 U.S.  2016-11-03 ABC News/Wash… A+          2220 lv         johnson      4   
##  4 U.S.  2016-11-03 ABC News/Wash… A+          2220 lv         mcmullin    NA   
##  5 U.S.  2016-11-01 Google Consum… B          26574 lv         clinton     38.0 
##  6 U.S.  2016-11-01 Google Consum… B          26574 lv         trump       35.7 
##  7 U.S.  2016-11-01 Google Consum… B          26574 lv         johnson      5.46
##  8 U.S.  2016-11-01 Google Consum… B          26574 lv         mcmullin    NA   
##  9 U.S.  2016-11-02 Ipsos          A-          2195 lv         clinton     42   
## 10 U.S.  2016-11-02 Ipsos          A-          2195 lv         trump       39   
## # ℹ 16,822 more rows
## # ℹ 1 more variable: adjpoll <dbl>
```
…
```r
polls_us_election_2016 %>% 
  pivot_longer( 
    cols = c(rawpoll_clinton:adjpoll_mcmullin),
    names_to = c(".value", "candidate"),
    names_pattern = "(rawpoll|adjpoll)_(.*)"
  ) %>% # reshape
  select(-enddate) %>%  # everything except enddate
* filter(samplesize>=2000) # filter sample size greater than 2,000
```

```
## # A tibble: 1,612 × 9
##    state startdate  pollster       grade samplesize population candidate rawpoll
##    <fct> <date>     <fct>          <fct>      <int> <chr>      <chr>       <dbl>
##  1 U.S.  2016-11-03 ABC News/Wash… A+          2220 lv         clinton     47   
##  2 U.S.  2016-11-03 ABC News/Wash… A+          2220 lv         trump       43   
##  3 U.S.  2016-11-03 ABC News/Wash… A+          2220 lv         johnson      4   
##  4 U.S.  2016-11-03 ABC News/Wash… A+          2220 lv         mcmullin    NA   
##  5 U.S.  2016-11-01 Google Consum… B          26574 lv         clinton     38.0 
##  6 U.S.  2016-11-01 Google Consum… B          26574 lv         trump       35.7 
##  7 U.S.  2016-11-01 Google Consum… B          26574 lv         johnson      5.46
##  8 U.S.  2016-11-01 Google Consum… B          26574 lv         mcmullin    NA   
##  9 U.S.  2016-11-02 Ipsos          A-          2195 lv         clinton     42   
## 10 U.S.  2016-11-02 Ipsos          A-          2195 lv         trump       39   
## # ℹ 1,602 more rows
## # ℹ 1 more variable: adjpoll <dbl>
```
…
```r
polls_us_election_2016 %>% 
  pivot_longer( 
    cols = c(rawpoll_clinton:adjpoll_mcmullin),
    names_to = c(".value", "candidate"),
    names_pattern = "(rawpoll|adjpoll)_(.*)"
  ) %>% # reshape
  select(-enddate) %>%  # everything except enddate
  filter(samplesize>=2000) %>%   # filter sample size greater than 2,000
* group_by(state, candidate) %>% #group by state and candidate
* summarise(rawpoll = mean(rawpoll, na.rm = TRUE)) # summarise
```

```
## # A tibble: 104 × 3
## # Groups:   state [26]
##    state      candidate rawpoll
##    <fct>      <chr>       <dbl>
##  1 Alabama    clinton     32.5 
##  2 Alabama    johnson    NaN   
##  3 Alabama    mcmullin   NaN   
##  4 Alabama    trump       62.5 
##  5 Arizona    clinton     44   
##  6 Arizona    johnson      7.5 
##  7 Arizona    mcmullin   NaN   
##  8 Arizona    trump       42.8 
##  9 California clinton     54.2 
## 10 California johnson      7.32
## # ℹ 94 more rows
```
…
